%YAML 1.1
%TAG !u! tag:unity3d.com,2011:
--- !u!114 &11400000
MonoBehaviour:
  m_ObjectHideFlags: 0
  m_CorrespondingSourceObject: {fileID: 0}
  m_PrefabInstance: {fileID: 0}
  m_PrefabAsset: {fileID: 0}
  m_GameObject: {fileID: 0}
  m_Enabled: 1
  m_EditorHideFlags: 0
  m_Script: {fileID: 11500000, guid: 9926c50c5ab03ab4f895eb372eed818b, type: 3}
  m_Name: Node 2
  m_EditorClassIdentifier: 
  speaker: Examine
  text: You can press F to toggle between flashlights
  nextDialogueNode: {fileID: 11400000, guid: f340f414421a7074c8fea7408f8022ed, type: 2}
  quiz: {fileID: 0}
