%YAML 1.1
%TAG !u! tag:unity3d.com,2011:
--- !u!114 &11400000
MonoBehaviour:
  m_ObjectHideFlags: 0
  m_CorrespondingSourceObject: {fileID: 0}
  m_PrefabInstance: {fileID: 0}
  m_PrefabAsset: {fileID: 0}
  m_GameObject: {fileID: 0}
  m_Enabled: 1
  m_EditorHideFlags: 0
  m_Script: {fileID: 11500000, guid: b36d129f493037e45b817ee1db1d5cac, type: 3}
  m_Name: QuizQuestion 2
  m_EditorClassIdentifier: 
  title: Question 2
  question: Which Archangel fell for permitting the communication between mankind
    with the realm of death?
  options:
  - Lucifer
  - Raguel
  - Sariel
  correctQuestion: 2
  nextQuestion: {fileID: 11400000, guid: 258b34ab230f9244fac3ba524cb72165, type: 2}
