%YAML 1.1
%TAG !u! tag:unity3d.com,2011:
--- !u!1001 &7175849949307355587
PrefabInstance:
  m_ObjectHideFlags: 0
  serializedVersion: 2
  m_Modification:
    serializedVersion: 3
    m_TransformParent: {fileID: 0}
    m_Modifications:
    - target: {fileID: -8679921383154817045, guid: 724bf180d7d588f4c91630d5fcf721bb,
        type: 3}
      propertyPath: m_LocalPosition.x
      value: 1.01
      objectReference: {fileID: 0}
    - target: {fileID: -8679921383154817045, guid: 724bf180d7d588f4c91630d5fcf721bb,
        type: 3}
      propertyPath: m_LocalPosition.y
      value: 0
      objectReference: {fileID: 0}
    - target: {fileID: -8679921383154817045, guid: 724bf180d7d588f4c91630d5fcf721bb,
        type: 3}
      propertyPath: m_LocalPosition.z
      value: 5.13
      objectReference: {fileID: 0}
    - target: {fileID: -8679921383154817045, guid: 724bf180d7d588f4c91630d5fcf721bb,
        type: 3}
      propertyPath: m_LocalRotation.w
      value: 0.017399253
      objectReference: {fileID: 0}
    - target: {fileID: -8679921383154817045, guid: 724bf180d7d588f4c91630d5fcf721bb,
        type: 3}
      propertyPath: m_LocalRotation.x
      value: -0
      objectReference: {fileID: 0}
    - target: {fileID: -8679921383154817045, guid: 724bf180d7d588f4c91630d5fcf721bb,
        type: 3}
      propertyPath: m_LocalRotation.y
      value: 0.99984866
      objectReference: {fileID: 0}
    - target: {fileID: -8679921383154817045, guid: 724bf180d7d588f4c91630d5fcf721bb,
        type: 3}
      propertyPath: m_LocalRotation.z
      value: -0
      objectReference: {fileID: 0}
    - target: {fileID: -8679921383154817045, guid: 724bf180d7d588f4c91630d5fcf721bb,
        type: 3}
      propertyPath: m_LocalEulerAnglesHint.x
      value: 0
      objectReference: {fileID: 0}
    - target: {fileID: -8679921383154817045, guid: 724bf180d7d588f4c91630d5fcf721bb,
        type: 3}
      propertyPath: m_LocalEulerAnglesHint.y
      value: 178.006
      objectReference: {fileID: 0}
    - target: {fileID: -8679921383154817045, guid: 724bf180d7d588f4c91630d5fcf721bb,
        type: 3}
      propertyPath: m_LocalEulerAnglesHint.z
      value: 0
      objectReference: {fileID: 0}
    - target: {fileID: -8191740002585371210, guid: 724bf180d7d588f4c91630d5fcf721bb,
        type: 3}
      propertyPath: m_LocalEulerAnglesHint.x
      value: -7.1975794
      objectReference: {fileID: 0}
    - target: {fileID: -8191740002585371210, guid: 724bf180d7d588f4c91630d5fcf721bb,
        type: 3}
      propertyPath: m_LocalEulerAnglesHint.y
      value: 2.4414785
      objectReference: {fileID: 0}
    - target: {fileID: -8191740002585371210, guid: 724bf180d7d588f4c91630d5fcf721bb,
        type: 3}
      propertyPath: m_LocalEulerAnglesHint.z
      value: 12.593099
      objectReference: {fileID: 0}
    - target: {fileID: -8068027186691560116, guid: 724bf180d7d588f4c91630d5fcf721bb,
        type: 3}
      propertyPath: m_LocalEulerAnglesHint.x
      value: 10.631617
      objectReference: {fileID: 0}
    - target: {fileID: -8068027186691560116, guid: 724bf180d7d588f4c91630d5fcf721bb,
        type: 3}
      propertyPath: m_LocalEulerAnglesHint.y
      value: 0.11898741
      objectReference: {fileID: 0}
    - target: {fileID: -8068027186691560116, guid: 724bf180d7d588f4c91630d5fcf721bb,
        type: 3}
      propertyPath: m_LocalEulerAnglesHint.z
      value: 1.2787224
      objectReference: {fileID: 0}
    - target: {fileID: -8021001004253913084, guid: 724bf180d7d588f4c91630d5fcf721bb,
        type: 3}
      propertyPath: m_LocalEulerAnglesHint.x
      value: 11.362472
      objectReference: {fileID: 0}
    - target: {fileID: -8021001004253913084, guid: 724bf180d7d588f4c91630d5fcf721bb,
        type: 3}
      propertyPath: m_LocalEulerAnglesHint.y
      value: -0.22755279
      objectReference: {fileID: 0}
    - target: {fileID: -8021001004253913084, guid: 724bf180d7d588f4c91630d5fcf721bb,
        type: 3}
      propertyPath: m_LocalEulerAnglesHint.z
      value: -1.5338911
      objectReference: {fileID: 0}
    - target: {fileID: -7219772299731422950, guid: 724bf180d7d588f4c91630d5fcf721bb,
        type: 3}
      propertyPath: m_LocalEulerAnglesHint.x
      value: 3.0128715
      objectReference: {fileID: 0}
    - target: {fileID: -7219772299731422950, guid: 724bf180d7d588f4c91630d5fcf721bb,
        type: 3}
      propertyPath: m_LocalEulerAnglesHint.y
      value: 0.185187
      objectReference: {fileID: 0}
    - target: {fileID: -7219772299731422950, guid: 724bf180d7d588f4c91630d5fcf721bb,
        type: 3}
      propertyPath: m_LocalEulerAnglesHint.z
      value: -8.578607
      objectReference: {fileID: 0}
    - target: {fileID: -6874584590210671055, guid: 724bf180d7d588f4c91630d5fcf721bb,
        type: 3}
      propertyPath: m_LocalEulerAnglesHint.x
      value: 40.28009
      objectReference: {fileID: 0}
    - target: {fileID: -6874584590210671055, guid: 724bf180d7d588f4c91630d5fcf721bb,
        type: 3}
      propertyPath: m_LocalEulerAnglesHint.y
      value: 7.6063023
      objectReference: {fileID: 0}
    - target: {fileID: -6874584590210671055, guid: 724bf180d7d588f4c91630d5fcf721bb,
        type: 3}
      propertyPath: m_LocalEulerAnglesHint.z
      value: 9.473721
      objectReference: {fileID: 0}
    - target: {fileID: -6857788192064577062, guid: 724bf180d7d588f4c91630d5fcf721bb,
        type: 3}
      propertyPath: m_LocalEulerAnglesHint.x
      value: -9.720595
      objectReference: {fileID: 0}
    - target: {fileID: -6857788192064577062, guid: 724bf180d7d588f4c91630d5fcf721bb,
        type: 3}
      propertyPath: m_LocalEulerAnglesHint.y
      value: 4.1916986
      objectReference: {fileID: 0}
    - target: {fileID: -6857788192064577062, guid: 724bf180d7d588f4c91630d5fcf721bb,
        type: 3}
      propertyPath: m_LocalEulerAnglesHint.z
      value: 29.830587
      objectReference: {fileID: 0}
    - target: {fileID: -6803169544883306252, guid: 724bf180d7d588f4c91630d5fcf721bb,
        type: 3}
      propertyPath: m_LocalEulerAnglesHint.x
      value: 70.08657
      objectReference: {fileID: 0}
    - target: {fileID: -6803169544883306252, guid: 724bf180d7d588f4c91630d5fcf721bb,
        type: 3}
      propertyPath: m_LocalEulerAnglesHint.y
      value: 93.45437
      objectReference: {fileID: 0}
    - target: {fileID: -6803169544883306252, guid: 724bf180d7d588f4c91630d5fcf721bb,
        type: 3}
      propertyPath: m_LocalEulerAnglesHint.z
      value: -172.40712
      objectReference: {fileID: 0}
    - target: {fileID: -6768225281626788248, guid: 724bf180d7d588f4c91630d5fcf721bb,
        type: 3}
      propertyPath: m_LocalEulerAnglesHint.x
      value: 7.8625627
      objectReference: {fileID: 0}
    - target: {fileID: -6768225281626788248, guid: 724bf180d7d588f4c91630d5fcf721bb,
        type: 3}
      propertyPath: m_LocalEulerAnglesHint.y
      value: -0.065334536
      objectReference: {fileID: 0}
    - target: {fileID: -6768225281626788248, guid: 724bf180d7d588f4c91630d5fcf721bb,
        type: 3}
      propertyPath: m_LocalEulerAnglesHint.z
      value: -0.9499166
      objectReference: {fileID: 0}
    - target: {fileID: -6024149945523619558, guid: 724bf180d7d588f4c91630d5fcf721bb,
        type: 3}
      propertyPath: m_LocalEulerAnglesHint.x
      value: 7.8625627
      objectReference: {fileID: 0}
    - target: {fileID: -6024149945523619558, guid: 724bf180d7d588f4c91630d5fcf721bb,
        type: 3}
      propertyPath: m_LocalEulerAnglesHint.y
      value: -0.065334536
      objectReference: {fileID: 0}
    - target: {fileID: -6024149945523619558, guid: 724bf180d7d588f4c91630d5fcf721bb,
        type: 3}
      propertyPath: m_LocalEulerAnglesHint.z
      value: -0.9499166
      objectReference: {fileID: 0}
    - target: {fileID: -5665043316445423941, guid: 724bf180d7d588f4c91630d5fcf721bb,
        type: 3}
      propertyPath: m_LocalEulerAnglesHint.x
      value: 10.631611
      objectReference: {fileID: 0}
    - target: {fileID: -5665043316445423941, guid: 724bf180d7d588f4c91630d5fcf721bb,
        type: 3}
      propertyPath: m_LocalEulerAnglesHint.y
      value: 0.118985705
      objectReference: {fileID: 0}
    - target: {fileID: -5665043316445423941, guid: 724bf180d7d588f4c91630d5fcf721bb,
        type: 3}
      propertyPath: m_LocalEulerAnglesHint.z
      value: 1.2787222
      objectReference: {fileID: 0}
    - target: {fileID: -5480977901411583989, guid: 724bf180d7d588f4c91630d5fcf721bb,
        type: 3}
      propertyPath: m_LocalEulerAnglesHint.x
      value: 15.733994
      objectReference: {fileID: 0}
    - target: {fileID: -5480977901411583989, guid: 724bf180d7d588f4c91630d5fcf721bb,
        type: 3}
      propertyPath: m_LocalEulerAnglesHint.y
      value: -0.26777777
      objectReference: {fileID: 0}
    - target: {fileID: -5480977901411583989, guid: 724bf180d7d588f4c91630d5fcf721bb,
        type: 3}
      propertyPath: m_LocalEulerAnglesHint.z
      value: -1.9381294
      objectReference: {fileID: 0}
    - target: {fileID: -3746190272939815206, guid: 724bf180d7d588f4c91630d5fcf721bb,
        type: 3}
      propertyPath: m_LocalEulerAnglesHint.x
      value: -57.65258
      objectReference: {fileID: 0}
    - target: {fileID: -3746190272939815206, guid: 724bf180d7d588f4c91630d5fcf721bb,
        type: 3}
      propertyPath: m_LocalEulerAnglesHint.y
      value: -4.903057
      objectReference: {fileID: 0}
    - target: {fileID: -3746190272939815206, guid: 724bf180d7d588f4c91630d5fcf721bb,
        type: 3}
      propertyPath: m_LocalEulerAnglesHint.z
      value: 1.873323
      objectReference: {fileID: 0}
    - target: {fileID: -3480699329000672020, guid: 724bf180d7d588f4c91630d5fcf721bb,
        type: 3}
      propertyPath: m_LocalEulerAnglesHint.x
      value: 20.25893
      objectReference: {fileID: 0}
    - target: {fileID: -3480699329000672020, guid: 724bf180d7d588f4c91630d5fcf721bb,
        type: 3}
      propertyPath: m_LocalEulerAnglesHint.y
      value: -0.75447226
      objectReference: {fileID: 0}
    - target: {fileID: -3480699329000672020, guid: 724bf180d7d588f4c91630d5fcf721bb,
        type: 3}
      propertyPath: m_LocalEulerAnglesHint.z
      value: -1.9377675
      objectReference: {fileID: 0}
    - target: {fileID: -3432401550182100168, guid: 724bf180d7d588f4c91630d5fcf721bb,
        type: 3}
      propertyPath: m_LocalEulerAnglesHint.x
      value: 15.472988
      objectReference: {fileID: 0}
    - target: {fileID: -3432401550182100168, guid: 724bf180d7d588f4c91630d5fcf721bb,
        type: 3}
      propertyPath: m_LocalEulerAnglesHint.y
      value: -10.22163
      objectReference: {fileID: 0}
    - target: {fileID: -3432401550182100168, guid: 724bf180d7d588f4c91630d5fcf721bb,
        type: 3}
      propertyPath: m_LocalEulerAnglesHint.z
      value: -68.702675
      objectReference: {fileID: 0}
    - target: {fileID: -3321919801592875672, guid: 724bf180d7d588f4c91630d5fcf721bb,
        type: 3}
      propertyPath: m_LocalEulerAnglesHint.x
      value: 24.672514
      objectReference: {fileID: 0}
    - target: {fileID: -3321919801592875672, guid: 724bf180d7d588f4c91630d5fcf721bb,
        type: 3}
      propertyPath: m_LocalEulerAnglesHint.y
      value: 0.9795375
      objectReference: {fileID: 0}
    - target: {fileID: -3321919801592875672, guid: 724bf180d7d588f4c91630d5fcf721bb,
        type: 3}
      propertyPath: m_LocalEulerAnglesHint.z
      value: 8.799072
      objectReference: {fileID: 0}
    - target: {fileID: -2899422035419094908, guid: 724bf180d7d588f4c91630d5fcf721bb,
        type: 3}
      propertyPath: m_LocalEulerAnglesHint.x
      value: 15.733938
      objectReference: {fileID: 0}
    - target: {fileID: -2899422035419094908, guid: 724bf180d7d588f4c91630d5fcf721bb,
        type: 3}
      propertyPath: m_LocalEulerAnglesHint.y
      value: -0.26784554
      objectReference: {fileID: 0}
    - target: {fileID: -2899422035419094908, guid: 724bf180d7d588f4c91630d5fcf721bb,
        type: 3}
      propertyPath: m_LocalEulerAnglesHint.z
      value: -1.9381359
      objectReference: {fileID: 0}
    - target: {fileID: -2770666803903516498, guid: 724bf180d7d588f4c91630d5fcf721bb,
        type: 3}
      propertyPath: m_LocalEulerAnglesHint.x
      value: 48.535675
      objectReference: {fileID: 0}
    - target: {fileID: -2770666803903516498, guid: 724bf180d7d588f4c91630d5fcf721bb,
        type: 3}
      propertyPath: m_LocalEulerAnglesHint.y
      value: 0.9198563
      objectReference: {fileID: 0}
    - target: {fileID: -2770666803903516498, guid: 724bf180d7d588f4c91630d5fcf721bb,
        type: 3}
      propertyPath: m_LocalEulerAnglesHint.z
      value: -6.9530907
      objectReference: {fileID: 0}
    - target: {fileID: -2594260964506120097, guid: 724bf180d7d588f4c91630d5fcf721bb,
        type: 3}
      propertyPath: m_LocalEulerAnglesHint.x
      value: -19.682064
      objectReference: {fileID: 0}
    - target: {fileID: -2594260964506120097, guid: 724bf180d7d588f4c91630d5fcf721bb,
        type: 3}
      propertyPath: m_LocalEulerAnglesHint.y
      value: 0.46693963
      objectReference: {fileID: 0}
    - target: {fileID: -2594260964506120097, guid: 724bf180d7d588f4c91630d5fcf721bb,
        type: 3}
      propertyPath: m_LocalEulerAnglesHint.z
      value: -2.566534
      objectReference: {fileID: 0}
    - target: {fileID: -2389525917609993686, guid: 724bf180d7d588f4c91630d5fcf721bb,
        type: 3}
      propertyPath: m_LocalEulerAnglesHint.x
      value: 21.273624
      objectReference: {fileID: 0}
    - target: {fileID: -2389525917609993686, guid: 724bf180d7d588f4c91630d5fcf721bb,
        type: 3}
      propertyPath: m_LocalEulerAnglesHint.y
      value: 0.4983635
      objectReference: {fileID: 0}
    - target: {fileID: -2389525917609993686, guid: 724bf180d7d588f4c91630d5fcf721bb,
        type: 3}
      propertyPath: m_LocalEulerAnglesHint.z
      value: 2.653057
      objectReference: {fileID: 0}
    - target: {fileID: -2072040086291044643, guid: 724bf180d7d588f4c91630d5fcf721bb,
        type: 3}
      propertyPath: m_LocalEulerAnglesHint.x
      value: -46.269768
      objectReference: {fileID: 0}
    - target: {fileID: -2072040086291044643, guid: 724bf180d7d588f4c91630d5fcf721bb,
        type: 3}
      propertyPath: m_LocalEulerAnglesHint.y
      value: 5.7328353
      objectReference: {fileID: 0}
    - target: {fileID: -2072040086291044643, guid: 724bf180d7d588f4c91630d5fcf721bb,
        type: 3}
      propertyPath: m_LocalEulerAnglesHint.z
      value: 0.96865964
      objectReference: {fileID: 0}
    - target: {fileID: -1864740628597940677, guid: 724bf180d7d588f4c91630d5fcf721bb,
        type: 3}
      propertyPath: m_LocalEulerAnglesHint.x
      value: 10.63162
      objectReference: {fileID: 0}
    - target: {fileID: -1864740628597940677, guid: 724bf180d7d588f4c91630d5fcf721bb,
        type: 3}
      propertyPath: m_LocalEulerAnglesHint.y
      value: 0.118987516
      objectReference: {fileID: 0}
    - target: {fileID: -1864740628597940677, guid: 724bf180d7d588f4c91630d5fcf721bb,
        type: 3}
      propertyPath: m_LocalEulerAnglesHint.z
      value: 1.2787132
      objectReference: {fileID: 0}
    - target: {fileID: -1812909498023395591, guid: 724bf180d7d588f4c91630d5fcf721bb,
        type: 3}
      propertyPath: m_LocalEulerAnglesHint.x
      value: -0.000026052836
      objectReference: {fileID: 0}
    - target: {fileID: -1812909498023395591, guid: 724bf180d7d588f4c91630d5fcf721bb,
        type: 3}
      propertyPath: m_LocalEulerAnglesHint.y
      value: 0.0000041187727
      objectReference: {fileID: 0}
    - target: {fileID: -1812909498023395591, guid: 724bf180d7d588f4c91630d5fcf721bb,
        type: 3}
      propertyPath: m_LocalEulerAnglesHint.z
      value: -143.91002
      objectReference: {fileID: 0}
    - target: {fileID: -1070350730909333850, guid: 724bf180d7d588f4c91630d5fcf721bb,
        type: 3}
      propertyPath: m_LocalEulerAnglesHint.x
      value: -20.726868
      objectReference: {fileID: 0}
    - target: {fileID: -1070350730909333850, guid: 724bf180d7d588f4c91630d5fcf721bb,
        type: 3}
      propertyPath: m_LocalEulerAnglesHint.y
      value: -0.5231015
      objectReference: {fileID: 0}
    - target: {fileID: -1070350730909333850, guid: 724bf180d7d588f4c91630d5fcf721bb,
        type: 3}
      propertyPath: m_LocalEulerAnglesHint.z
      value: 2.734643
      objectReference: {fileID: 0}
    - target: {fileID: -870823317777057635, guid: 724bf180d7d588f4c91630d5fcf721bb,
        type: 3}
      propertyPath: m_LocalEulerAnglesHint.x
      value: 12.331948
      objectReference: {fileID: 0}
    - target: {fileID: -870823317777057635, guid: 724bf180d7d588f4c91630d5fcf721bb,
        type: 3}
      propertyPath: m_LocalEulerAnglesHint.y
      value: -2.207403
      objectReference: {fileID: 0}
    - target: {fileID: -870823317777057635, guid: 724bf180d7d588f4c91630d5fcf721bb,
        type: 3}
      propertyPath: m_LocalEulerAnglesHint.z
      value: -27.09575
      objectReference: {fileID: 0}
    - target: {fileID: -316011798592332225, guid: 724bf180d7d588f4c91630d5fcf721bb,
        type: 3}
      propertyPath: m_LocalEulerAnglesHint.x
      value: -6.9581003
      objectReference: {fileID: 0}
    - target: {fileID: -316011798592332225, guid: 724bf180d7d588f4c91630d5fcf721bb,
        type: 3}
      propertyPath: m_LocalEulerAnglesHint.y
      value: -8.5633543e-16
      objectReference: {fileID: 0}
    - target: {fileID: -316011798592332225, guid: 724bf180d7d588f4c91630d5fcf721bb,
        type: 3}
      propertyPath: m_LocalEulerAnglesHint.z
      value: -180
      objectReference: {fileID: 0}
    - target: {fileID: -104578136787704052, guid: 724bf180d7d588f4c91630d5fcf721bb,
        type: 3}
      propertyPath: m_LocalEulerAnglesHint.x
      value: -20.726885
      objectReference: {fileID: 0}
    - target: {fileID: -104578136787704052, guid: 724bf180d7d588f4c91630d5fcf721bb,
        type: 3}
      propertyPath: m_LocalEulerAnglesHint.y
      value: -0.5231354
      objectReference: {fileID: 0}
    - target: {fileID: -104578136787704052, guid: 724bf180d7d588f4c91630d5fcf721bb,
        type: 3}
      propertyPath: m_LocalEulerAnglesHint.z
      value: 2.7346249
      objectReference: {fileID: 0}
    - target: {fileID: 366175167995203695, guid: 724bf180d7d588f4c91630d5fcf721bb,
        type: 3}
      propertyPath: m_LocalEulerAnglesHint.x
      value: 21.09434
      objectReference: {fileID: 0}
    - target: {fileID: 366175167995203695, guid: 724bf180d7d588f4c91630d5fcf721bb,
        type: 3}
      propertyPath: m_LocalEulerAnglesHint.y
      value: -0.78742087
      objectReference: {fileID: 0}
    - target: {fileID: 366175167995203695, guid: 724bf180d7d588f4c91630d5fcf721bb,
        type: 3}
      propertyPath: m_LocalEulerAnglesHint.z
      value: -1.6556076
      objectReference: {fileID: 0}
    - target: {fileID: 608321761475470972, guid: 724bf180d7d588f4c91630d5fcf721bb,
        type: 3}
      propertyPath: m_LocalEulerAnglesHint.x
      value: 53.2992
      objectReference: {fileID: 0}
    - target: {fileID: 608321761475470972, guid: 724bf180d7d588f4c91630d5fcf721bb,
        type: 3}
      propertyPath: m_LocalEulerAnglesHint.y
      value: -29.096891
      objectReference: {fileID: 0}
    - target: {fileID: 608321761475470972, guid: 724bf180d7d588f4c91630d5fcf721bb,
        type: 3}
      propertyPath: m_LocalEulerAnglesHint.z
      value: -36.860016
      objectReference: {fileID: 0}
    - target: {fileID: 919132149155446097, guid: 724bf180d7d588f4c91630d5fcf721bb,
        type: 3}
      propertyPath: m_Name
      value: Warzombie F Pedroso
      objectReference: {fileID: 0}
    - target: {fileID: 919132149155446097, guid: 724bf180d7d588f4c91630d5fcf721bb,
        type: 3}
      propertyPath: m_TagString
      value: Enemy
      objectReference: {fileID: 0}
    - target: {fileID: 1092408308860062549, guid: 724bf180d7d588f4c91630d5fcf721bb,
        type: 3}
      propertyPath: m_LocalEulerAnglesHint.x
      value: 7.8625627
      objectReference: {fileID: 0}
    - target: {fileID: 1092408308860062549, guid: 724bf180d7d588f4c91630d5fcf721bb,
        type: 3}
      propertyPath: m_LocalEulerAnglesHint.y
      value: -0.065334536
      objectReference: {fileID: 0}
    - target: {fileID: 1092408308860062549, guid: 724bf180d7d588f4c91630d5fcf721bb,
        type: 3}
      propertyPath: m_LocalEulerAnglesHint.z
      value: -0.9499166
      objectReference: {fileID: 0}
    - target: {fileID: 1189529853000058984, guid: 724bf180d7d588f4c91630d5fcf721bb,
        type: 3}
      propertyPath: m_LocalEulerAnglesHint.x
      value: -20.726885
      objectReference: {fileID: 0}
    - target: {fileID: 1189529853000058984, guid: 724bf180d7d588f4c91630d5fcf721bb,
        type: 3}
      propertyPath: m_LocalEulerAnglesHint.y
      value: -0.5231354
      objectReference: {fileID: 0}
    - target: {fileID: 1189529853000058984, guid: 724bf180d7d588f4c91630d5fcf721bb,
        type: 3}
      propertyPath: m_LocalEulerAnglesHint.z
      value: 2.7346249
      objectReference: {fileID: 0}
    - target: {fileID: 1330755669629619180, guid: 724bf180d7d588f4c91630d5fcf721bb,
        type: 3}
      propertyPath: m_LocalEulerAnglesHint.x
      value: -19.682064
      objectReference: {fileID: 0}
    - target: {fileID: 1330755669629619180, guid: 724bf180d7d588f4c91630d5fcf721bb,
        type: 3}
      propertyPath: m_LocalEulerAnglesHint.y
      value: 0.46693248
      objectReference: {fileID: 0}
    - target: {fileID: 1330755669629619180, guid: 724bf180d7d588f4c91630d5fcf721bb,
        type: 3}
      propertyPath: m_LocalEulerAnglesHint.z
      value: -2.5665321
      objectReference: {fileID: 0}
    - target: {fileID: 1564860333797465651, guid: 724bf180d7d588f4c91630d5fcf721bb,
        type: 3}
      propertyPath: m_LocalEulerAnglesHint.x
      value: 21.257671
      objectReference: {fileID: 0}
    - target: {fileID: 1564860333797465651, guid: 724bf180d7d588f4c91630d5fcf721bb,
        type: 3}
      propertyPath: m_LocalEulerAnglesHint.y
      value: 0.4975681
      objectReference: {fileID: 0}
    - target: {fileID: 1564860333797465651, guid: 724bf180d7d588f4c91630d5fcf721bb,
        type: 3}
      propertyPath: m_LocalEulerAnglesHint.z
      value: 2.6508622
      objectReference: {fileID: 0}
    - target: {fileID: 1852576806548013000, guid: 724bf180d7d588f4c91630d5fcf721bb,
        type: 3}
      propertyPath: m_LocalEulerAnglesHint.x
      value: -42.179638
      objectReference: {fileID: 0}
    - target: {fileID: 1852576806548013000, guid: 724bf180d7d588f4c91630d5fcf721bb,
        type: 3}
      propertyPath: m_LocalEulerAnglesHint.y
      value: -34.034267
      objectReference: {fileID: 0}
    - target: {fileID: 1852576806548013000, guid: 724bf180d7d588f4c91630d5fcf721bb,
        type: 3}
      propertyPath: m_LocalEulerAnglesHint.z
      value: 2.1370828
      objectReference: {fileID: 0}
    - target: {fileID: 2559285840627121667, guid: 724bf180d7d588f4c91630d5fcf721bb,
        type: 3}
      propertyPath: m_LocalEulerAnglesHint.x
      value: -82.63062
      objectReference: {fileID: 0}
    - target: {fileID: 2559285840627121667, guid: 724bf180d7d588f4c91630d5fcf721bb,
        type: 3}
      propertyPath: m_LocalEulerAnglesHint.y
      value: 20.190104
      objectReference: {fileID: 0}
    - target: {fileID: 2559285840627121667, guid: 724bf180d7d588f4c91630d5fcf721bb,
        type: 3}
      propertyPath: m_LocalEulerAnglesHint.z
      value: 150.26297
      objectReference: {fileID: 0}
    - target: {fileID: 2563496969622287784, guid: 724bf180d7d588f4c91630d5fcf721bb,
        type: 3}
      propertyPath: m_LocalEulerAnglesHint.x
      value: -0.0000043130876
      objectReference: {fileID: 0}
    - target: {fileID: 2563496969622287784, guid: 724bf180d7d588f4c91630d5fcf721bb,
        type: 3}
      propertyPath: m_LocalEulerAnglesHint.y
      value: -0.000007821892
      objectReference: {fileID: 0}
    - target: {fileID: 2563496969622287784, guid: 724bf180d7d588f4c91630d5fcf721bb,
        type: 3}
      propertyPath: m_LocalEulerAnglesHint.z
      value: 150.39276
      objectReference: {fileID: 0}
    - target: {fileID: 2754526768437944597, guid: 724bf180d7d588f4c91630d5fcf721bb,
        type: 3}
      propertyPath: m_LocalEulerAnglesHint.x
      value: 7.016709e-15
      objectReference: {fileID: 0}
    - target: {fileID: 2754526768437944597, guid: 724bf180d7d588f4c91630d5fcf721bb,
        type: 3}
      propertyPath: m_LocalEulerAnglesHint.y
      value: 180
      objectReference: {fileID: 0}
    - target: {fileID: 2754526768437944597, guid: 724bf180d7d588f4c91630d5fcf721bb,
        type: 3}
      propertyPath: m_LocalEulerAnglesHint.z
      value: 180
      objectReference: {fileID: 0}
    - target: {fileID: 2916570863362053800, guid: 724bf180d7d588f4c91630d5fcf721bb,
        type: 3}
      propertyPath: m_LocalEulerAnglesHint.x
      value: 48.267998
      objectReference: {fileID: 0}
    - target: {fileID: 2916570863362053800, guid: 724bf180d7d588f4c91630d5fcf721bb,
        type: 3}
      propertyPath: m_LocalEulerAnglesHint.y
      value: -0.90749687
      objectReference: {fileID: 0}
    - target: {fileID: 2916570863362053800, guid: 724bf180d7d588f4c91630d5fcf721bb,
        type: 3}
      propertyPath: m_LocalEulerAnglesHint.z
      value: 6.9625955
      objectReference: {fileID: 0}
    - target: {fileID: 3183749884578473501, guid: 724bf180d7d588f4c91630d5fcf721bb,
        type: 3}
      propertyPath: m_LocalEulerAnglesHint.x
      value: 10.631621
      objectReference: {fileID: 0}
    - target: {fileID: 3183749884578473501, guid: 724bf180d7d588f4c91630d5fcf721bb,
        type: 3}
      propertyPath: m_LocalEulerAnglesHint.y
      value: 0.1189842
      objectReference: {fileID: 0}
    - target: {fileID: 3183749884578473501, guid: 724bf180d7d588f4c91630d5fcf721bb,
        type: 3}
      propertyPath: m_LocalEulerAnglesHint.z
      value: 1.278712
      objectReference: {fileID: 0}
    - target: {fileID: 3667946887678727147, guid: 724bf180d7d588f4c91630d5fcf721bb,
        type: 3}
      propertyPath: m_LocalEulerAnglesHint.x
      value: -20.726885
      objectReference: {fileID: 0}
    - target: {fileID: 3667946887678727147, guid: 724bf180d7d588f4c91630d5fcf721bb,
        type: 3}
      propertyPath: m_LocalEulerAnglesHint.y
      value: -0.5231354
      objectReference: {fileID: 0}
    - target: {fileID: 3667946887678727147, guid: 724bf180d7d588f4c91630d5fcf721bb,
        type: 3}
      propertyPath: m_LocalEulerAnglesHint.z
      value: 2.7346249
      objectReference: {fileID: 0}
    - target: {fileID: 4747904710347621765, guid: 724bf180d7d588f4c91630d5fcf721bb,
        type: 3}
      propertyPath: m_LocalEulerAnglesHint.x
      value: -20.184973
      objectReference: {fileID: 0}
    - target: {fileID: 4747904710347621765, guid: 724bf180d7d588f4c91630d5fcf721bb,
        type: 3}
      propertyPath: m_LocalEulerAnglesHint.y
      value: 0.47197977
      objectReference: {fileID: 0}
    - target: {fileID: 4747904710347621765, guid: 724bf180d7d588f4c91630d5fcf721bb,
        type: 3}
      propertyPath: m_LocalEulerAnglesHint.z
      value: 1.486979
      objectReference: {fileID: 0}
    - target: {fileID: 5048025441337412694, guid: 724bf180d7d588f4c91630d5fcf721bb,
        type: 3}
      propertyPath: m_LocalEulerAnglesHint.x
      value: 8.637073
      objectReference: {fileID: 0}
    - target: {fileID: 5048025441337412694, guid: 724bf180d7d588f4c91630d5fcf721bb,
        type: 3}
      propertyPath: m_LocalEulerAnglesHint.y
      value: -20.43854
      objectReference: {fileID: 0}
    - target: {fileID: 5048025441337412694, guid: 724bf180d7d588f4c91630d5fcf721bb,
        type: 3}
      propertyPath: m_LocalEulerAnglesHint.z
      value: -48.889572
      objectReference: {fileID: 0}
    - target: {fileID: 5097370190579632962, guid: 724bf180d7d588f4c91630d5fcf721bb,
        type: 3}
      propertyPath: m_LocalEulerAnglesHint.x
      value: 7.862558
      objectReference: {fileID: 0}
    - target: {fileID: 5097370190579632962, guid: 724bf180d7d588f4c91630d5fcf721bb,
        type: 3}
      propertyPath: m_LocalEulerAnglesHint.y
      value: -0.06533051
      objectReference: {fileID: 0}
    - target: {fileID: 5097370190579632962, guid: 724bf180d7d588f4c91630d5fcf721bb,
        type: 3}
      propertyPath: m_LocalEulerAnglesHint.z
      value: -0.9499186
      objectReference: {fileID: 0}
    - target: {fileID: 5372056943023685468, guid: 724bf180d7d588f4c91630d5fcf721bb,
        type: 3}
      propertyPath: m_LocalEulerAnglesHint.x
      value: 15.733938
      objectReference: {fileID: 0}
    - target: {fileID: 5372056943023685468, guid: 724bf180d7d588f4c91630d5fcf721bb,
        type: 3}
      propertyPath: m_LocalEulerAnglesHint.y
      value: -0.26784554
      objectReference: {fileID: 0}
    - target: {fileID: 5372056943023685468, guid: 724bf180d7d588f4c91630d5fcf721bb,
        type: 3}
      propertyPath: m_LocalEulerAnglesHint.z
      value: -1.9381359
      objectReference: {fileID: 0}
    - target: {fileID: 5465940246521907071, guid: 724bf180d7d588f4c91630d5fcf721bb,
        type: 3}
      propertyPath: m_LocalEulerAnglesHint.x
      value: 36.73787
      objectReference: {fileID: 0}
    - target: {fileID: 5465940246521907071, guid: 724bf180d7d588f4c91630d5fcf721bb,
        type: 3}
      propertyPath: m_LocalEulerAnglesHint.y
      value: 1.6531807
      objectReference: {fileID: 0}
    - target: {fileID: 5465940246521907071, guid: 724bf180d7d588f4c91630d5fcf721bb,
        type: 3}
      propertyPath: m_LocalEulerAnglesHint.z
      value: -5.819285
      objectReference: {fileID: 0}
    - target: {fileID: 6000407479487422213, guid: 724bf180d7d588f4c91630d5fcf721bb,
        type: 3}
      propertyPath: m_LocalEulerAnglesHint.x
      value: 22.903236
      objectReference: {fileID: 0}
    - target: {fileID: 6000407479487422213, guid: 724bf180d7d588f4c91630d5fcf721bb,
        type: 3}
      propertyPath: m_LocalEulerAnglesHint.y
      value: -18.191631
      objectReference: {fileID: 0}
    - target: {fileID: 6000407479487422213, guid: 724bf180d7d588f4c91630d5fcf721bb,
        type: 3}
      propertyPath: m_LocalEulerAnglesHint.z
      value: 50.851807
      objectReference: {fileID: 0}
    - target: {fileID: 6341119541397085964, guid: 724bf180d7d588f4c91630d5fcf721bb,
        type: 3}
      propertyPath: m_LocalEulerAnglesHint.x
      value: 15.733938
      objectReference: {fileID: 0}
    - target: {fileID: 6341119541397085964, guid: 724bf180d7d588f4c91630d5fcf721bb,
        type: 3}
      propertyPath: m_LocalEulerAnglesHint.y
      value: -0.26784554
      objectReference: {fileID: 0}
    - target: {fileID: 6341119541397085964, guid: 724bf180d7d588f4c91630d5fcf721bb,
        type: 3}
      propertyPath: m_LocalEulerAnglesHint.z
      value: -1.9381359
      objectReference: {fileID: 0}
    - target: {fileID: 6502182839619065283, guid: 724bf180d7d588f4c91630d5fcf721bb,
        type: 3}
      propertyPath: m_LocalEulerAnglesHint.x
      value: -53.988243
      objectReference: {fileID: 0}
    - target: {fileID: 6502182839619065283, guid: 724bf180d7d588f4c91630d5fcf721bb,
        type: 3}
      propertyPath: m_LocalEulerAnglesHint.y
      value: -21.088411
      objectReference: {fileID: 0}
    - target: {fileID: 6502182839619065283, guid: 724bf180d7d588f4c91630d5fcf721bb,
        type: 3}
      propertyPath: m_LocalEulerAnglesHint.z
      value: -5.029396
      objectReference: {fileID: 0}
    - target: {fileID: 6515712193588681746, guid: 724bf180d7d588f4c91630d5fcf721bb,
        type: 3}
      propertyPath: m_LocalEulerAnglesHint.x
      value: 7.701341
      objectReference: {fileID: 0}
    - target: {fileID: 6515712193588681746, guid: 724bf180d7d588f4c91630d5fcf721bb,
        type: 3}
      propertyPath: m_LocalEulerAnglesHint.y
      value: 0.9072478
      objectReference: {fileID: 0}
    - target: {fileID: 6515712193588681746, guid: 724bf180d7d588f4c91630d5fcf721bb,
        type: 3}
      propertyPath: m_LocalEulerAnglesHint.z
      value: -1.4102154
      objectReference: {fileID: 0}
    - target: {fileID: 6655383506977046455, guid: 724bf180d7d588f4c91630d5fcf721bb,
        type: 3}
      propertyPath: m_LocalEulerAnglesHint.x
      value: 21.739574
      objectReference: {fileID: 0}
    - target: {fileID: 6655383506977046455, guid: 724bf180d7d588f4c91630d5fcf721bb,
        type: 3}
      propertyPath: m_LocalEulerAnglesHint.y
      value: -1.1014607
      objectReference: {fileID: 0}
    - target: {fileID: 6655383506977046455, guid: 724bf180d7d588f4c91630d5fcf721bb,
        type: 3}
      propertyPath: m_LocalEulerAnglesHint.z
      value: -1.7105104
      objectReference: {fileID: 0}
    - target: {fileID: 7078722787440015773, guid: 724bf180d7d588f4c91630d5fcf721bb,
        type: 3}
      propertyPath: m_LocalEulerAnglesHint.x
      value: 78.76529
      objectReference: {fileID: 0}
    - target: {fileID: 7078722787440015773, guid: 724bf180d7d588f4c91630d5fcf721bb,
        type: 3}
      propertyPath: m_LocalEulerAnglesHint.y
      value: -78.91475
      objectReference: {fileID: 0}
    - target: {fileID: 7078722787440015773, guid: 724bf180d7d588f4c91630d5fcf721bb,
        type: 3}
      propertyPath: m_LocalEulerAnglesHint.z
      value: -170.95862
      objectReference: {fileID: 0}
    - target: {fileID: 7666680083751660616, guid: 724bf180d7d588f4c91630d5fcf721bb,
        type: 3}
      propertyPath: m_LocalEulerAnglesHint.x
      value: 21.257662
      objectReference: {fileID: 0}
    - target: {fileID: 7666680083751660616, guid: 724bf180d7d588f4c91630d5fcf721bb,
        type: 3}
      propertyPath: m_LocalEulerAnglesHint.y
      value: 0.49756798
      objectReference: {fileID: 0}
    - target: {fileID: 7666680083751660616, guid: 724bf180d7d588f4c91630d5fcf721bb,
        type: 3}
      propertyPath: m_LocalEulerAnglesHint.z
      value: 2.650867
      objectReference: {fileID: 0}
    - target: {fileID: 8169382868667117632, guid: 724bf180d7d588f4c91630d5fcf721bb,
        type: 3}
      propertyPath: m_LocalEulerAnglesHint.x
      value: -72.52585
      objectReference: {fileID: 0}
    - target: {fileID: 8169382868667117632, guid: 724bf180d7d588f4c91630d5fcf721bb,
        type: 3}
      propertyPath: m_LocalEulerAnglesHint.y
      value: -6.428061
      objectReference: {fileID: 0}
    - target: {fileID: 8169382868667117632, guid: 724bf180d7d588f4c91630d5fcf721bb,
        type: 3}
      propertyPath: m_LocalEulerAnglesHint.z
      value: -141.21294
      objectReference: {fileID: 0}
    - target: {fileID: 8255111157037086696, guid: 724bf180d7d588f4c91630d5fcf721bb,
        type: 3}
      propertyPath: m_LocalEulerAnglesHint.x
      value: -19.698038
      objectReference: {fileID: 0}
    - target: {fileID: 8255111157037086696, guid: 724bf180d7d588f4c91630d5fcf721bb,
        type: 3}
      propertyPath: m_LocalEulerAnglesHint.y
      value: 0.46769232
      objectReference: {fileID: 0}
    - target: {fileID: 8255111157037086696, guid: 724bf180d7d588f4c91630d5fcf721bb,
        type: 3}
      propertyPath: m_LocalEulerAnglesHint.z
      value: -2.5686839
      objectReference: {fileID: 0}
    - target: {fileID: 8447082967072642302, guid: 724bf180d7d588f4c91630d5fcf721bb,
        type: 3}
      propertyPath: m_LocalEulerAnglesHint.x
      value: 12.611554
      objectReference: {fileID: 0}
    - target: {fileID: 8447082967072642302, guid: 724bf180d7d588f4c91630d5fcf721bb,
        type: 3}
      propertyPath: m_LocalEulerAnglesHint.y
      value: 8.703588
      objectReference: {fileID: 0}
    - target: {fileID: 8447082967072642302, guid: 724bf180d7d588f4c91630d5fcf721bb,
        type: 3}
      propertyPath: m_LocalEulerAnglesHint.z
      value: 45.412746
      objectReference: {fileID: 0}
    m_RemovedComponents: []
    m_RemovedGameObjects: []
    m_AddedGameObjects: []
    m_AddedComponents:
    - targetCorrespondingSourceObject: {fileID: 919132149155446097, guid: 724bf180d7d588f4c91630d5fcf721bb,
        type: 3}
      insertIndex: -1
      addedObject: {fileID: 1925801835716850873}
    - targetCorrespondingSourceObject: {fileID: 919132149155446097, guid: 724bf180d7d588f4c91630d5fcf721bb,
        type: 3}
      insertIndex: -1
      addedObject: {fileID: 6542226453503134639}
    - targetCorrespondingSourceObject: {fileID: 919132149155446097, guid: 724bf180d7d588f4c91630d5fcf721bb,
        type: 3}
      insertIndex: -1
      addedObject: {fileID: 5570591322613077287}
    - targetCorrespondingSourceObject: {fileID: 919132149155446097, guid: 724bf180d7d588f4c91630d5fcf721bb,
        type: 3}
      insertIndex: -1
      addedObject: {fileID: 2467567992799714655}
  m_SourcePrefab: {fileID: 100100000, guid: 724bf180d7d588f4c91630d5fcf721bb, type: 3}
--- !u!1 &8022270291649854610 stripped
GameObject:
  m_CorrespondingSourceObject: {fileID: 919132149155446097, guid: 724bf180d7d588f4c91630d5fcf721bb,
    type: 3}
  m_PrefabInstance: {fileID: 7175849949307355587}
  m_PrefabAsset: {fileID: 0}
--- !u!95 &1925801835716850873
Animator:
  serializedVersion: 5
  m_ObjectHideFlags: 0
  m_CorrespondingSourceObject: {fileID: 0}
  m_PrefabInstance: {fileID: 0}
  m_PrefabAsset: {fileID: 0}
  m_GameObject: {fileID: 8022270291649854610}
  m_Enabled: 1
  m_Avatar: {fileID: 0}
  m_Controller: {fileID: 9100000, guid: 5e711820c8c41ba49b37c9b1e614b7bf, type: 2}
  m_CullingMode: 0
  m_UpdateMode: 0
  m_ApplyRootMotion: 0
  m_LinearVelocityBlending: 0
  m_StabilizeFeet: 0
  m_WarningMessage: 
  m_HasTransformHierarchy: 1
  m_AllowConstantClipSamplingOptimization: 1
  m_KeepAnimatorStateOnDisable: 0
  m_WriteDefaultValuesOnDisable: 0
--- !u!114 &6542226453503134639
MonoBehaviour:
  m_ObjectHideFlags: 0
  m_CorrespondingSourceObject: {fileID: 0}
  m_PrefabInstance: {fileID: 0}
  m_PrefabAsset: {fileID: 0}
  m_GameObject: {fileID: 8022270291649854610}
  m_Enabled: 1
  m_EditorHideFlags: 0
  m_Script: {fileID: 11500000, guid: 56bc5f549b73b954ca72224621e624f0, type: 3}
  m_Name: 
  m_EditorClassIdentifier: 
  bedInteraction: {fileID: 0}
  timeToDie: 3
--- !u!136 &5570591322613077287
CapsuleCollider:
  m_ObjectHideFlags: 0
  m_CorrespondingSourceObject: {fileID: 0}
  m_PrefabInstance: {fileID: 0}
  m_PrefabAsset: {fileID: 0}
  m_GameObject: {fileID: 8022270291649854610}
  m_Material: {fileID: 0}
  m_IncludeLayers:
    serializedVersion: 2
    m_Bits: 0
  m_ExcludeLayers:
    serializedVersion: 2
    m_Bits: 0
  m_LayerOverridePriority: 0
  m_IsTrigger: 0
  m_ProvidesContacts: 0
  m_Enabled: 1
  serializedVersion: 2
  m_Radius: 0.4
  m_Height: 2.0954568
  m_Direction: 1
  m_Center: {x: 0, y: 1.0151917, z: 0}
--- !u!54 &2467567992799714655
Rigidbody:
  m_ObjectHideFlags: 0
  m_CorrespondingSourceObject: {fileID: 0}
  m_PrefabInstance: {fileID: 0}
  m_PrefabAsset: {fileID: 0}
  m_GameObject: {fileID: 8022270291649854610}
  serializedVersion: 4
  m_Mass: 1
  m_Drag: 0
  m_AngularDrag: 0.05
  m_CenterOfMass: {x: 0, y: 0, z: 0}
  m_InertiaTensor: {x: 1, y: 1, z: 1}
  m_InertiaRotation: {x: 0, y: 0, z: 0, w: 1}
  m_IncludeLayers:
    serializedVersion: 2
    m_Bits: 0
  m_ExcludeLayers:
    serializedVersion: 2
    m_Bits: 0
  m_ImplicitCom: 1
  m_ImplicitTensor: 1
  m_UseGravity: 1
  m_IsKinematic: 1
  m_Interpolate: 0
  m_Constraints: 0
  m_CollisionDetection: 0
