%YAML 1.1
%TAG !u! tag:unity3d.com,2011:
--- !u!114 &11400000
MonoBehaviour:
  m_ObjectHideFlags: 0
  m_CorrespondingSourceObject: {fileID: 0}
  m_PrefabInstance: {fileID: 0}
  m_PrefabAsset: {fileID: 0}
  m_GameObject: {fileID: 0}
  m_Enabled: 1
  m_EditorHideFlags: 0
  m_Script: {fileID: 11500000, guid: 5a2f4b2632fab8247830aa714558e94d, type: 3}
  m_Name: Rotting Body Part
  m_EditorClassIdentifier: 
  itemName: Rotting Body Part
  description: You don't want to know what happened to this guy.
  icon: {fileID: 0}
  image: {fileID: 0}
